{
    "sEcho": {{ dtr.echo }},
    "iTotalRecords": {{ dtr.total }},
    "iTotalDisplayRecords": {{ dtr.totaldisplay }},
    "aaData": [
    {% for s in ss %}
        [
            "{% filter escapejs %}<a href="{% url 'submission-detail' s.submission.id %}">{{ s.sample.name }}</a>{% endfilter %}",
            "{{ s.sample.organism|escapejs }}",
            "{{ s.submission.created|escapejs }}"
        ]{% if not forloop.last %},{% endif %}
    {% endfor %}
    ] 
}
