{
    "sEcho": {{ dtr.echo }},
    "iTotalRecords": {{ dtr.total }},
    "iTotalDisplayRecords": {{ dtr.totaldisplay }},
    "aaData": [
    {% for p in projects %}
        {
            "0": "{% if isBilling %} {{ p }} {% else %} {% filter escapejs %}<a href='{% url 'libprep-project-detail' p.id %}'>{{ p.name }}</a>{% endfilter %} {% endif %}",
            "1": "{{ p.sampleprepdetail.preety_gtac_ids }}",
            "2": "{{ p.pretty_labs }}",
            "3": "{% if p.prep_owner %} {{ p.prep_owner }} {% else %} {{ p.assigned_to.person.name }} {% endif %}",
            "4": "{{ p.preptypeversion }}",
            "5": "{{ p.get_status_display}}",
            "6": "{{ p.sampleprepdetail.count }}",
            "7": "{{ p.billing_date }}",
            "DT_RowId": "{{ p.id }}"
        }{% if not forloop.last %},{% endif %}
    {% endfor %}
    ] 
}
